{
    "data": [
        {
            "type": "Song",
            "id": "4001",
            "attributes": {
                "title": "Amazing Grace",
                "author": "John Newton",
                "ccli_number": 4669344,
                "last_scheduled_at": "2026-03-30T09:00:00Z"
            }
        },
        {
            "type": "Song",
            "id": "4002",
            "attributes": {
                "title": "How Great Is Our God",
                "author": "Chris Tomlin",
                "ccli_number": null,
                "last_scheduled_at": "2026-03-23T09:00:00Z"
            }
        }
    ],
    "meta": {"total_count": 4, "count": 2, "next": {"offset": 2}},
    "links": {"next": "https://api.planningcenteronline.com/services/v2/songs?offset=2"}
}
